<?xml version="1.0" encoding="UTF-8"?>
<!DOCTYPE svg PUBLIC "-//W3C//DTD SVG 1.1//EN" "http://www.w3.org/Graphics/SVG/1.1/DTD/svg11.dtd">
<!-- Creator: CorelDRAW X7 -->
<svg xmlns="http://www.w3.org/2000/svg" xml:space="preserve" width="7.9586mm" height="8.2972mm" version="1.1" style="shape-rendering:geometricPrecision; text-rendering:geometricPrecision; image-rendering:optimizeQuality; fill-rule:evenodd; clip-rule:evenodd"
viewBox="0 0 796 830"
 xmlns:xlink="http://www.w3.org/1999/xlink">
 <defs>
  <style type="text/css">
   <![CDATA[
    .fil0 {fill:#FEFEFE}
   ]]>
  </style>
 </defs>
 <g id="Слой_x0020_1">
  <metadata id="CorelCorpID_0Corel-Layer"/>
  <path class="fil0" d="M687 316l0 -32c0,-75 -27,-145 -75,-197 -50,-54 -118,-83 -192,-83l-26 0c-75,0 -143,29 -193,83 -48,52 -75,122 -75,197l0 32c-58,4 -105,53 -105,112l0 50c0,62 51,112 113,112l63 0c12,0 21,-9 21,-20l0 -234c0,-11 -9,-21 -21,-21l-29 0 0 -31c0,-136 97,-239 225,-239l26 0c129,0 226,103 226,239l0 31 -29 0c-12,0 -21,10 -21,21l0 234c0,11 9,20 21,20l28 0c-8,108 -82,133 -117,139 -9,-29 -36,-50 -69,-50l-51 0c-40,0 -73,32 -73,72 0,40 33,73 73,73l52 0c33,0 61,-23 69,-54 17,-2 44,-8 70,-24 38,-21 82,-66 88,-156 59,-4 106,-53 106,-113l0 -49c0,-59 -46,-108 -105,-112zm-510 233l-43 0c-39,0 -71,-32 -71,-72l0 -49c0,-39 32,-71 71,-71l43 0 0 192zm282 233l-52 0c-18,0 -31,-14 -31,-31 0,-17 13,-31 31,-31l52 0c17,0 31,14 31,31 0,17 -14,31 -31,31zm292 -305c0,40 -32,72 -72,72l-43 0 0 -192 43 0c40,0 72,32 72,71l0 49z"/>
 </g>
</svg>
